<svg xmlns="http://www.w3.org/2000/svg" width="48.6" height="48.6">
    <path d="M35.4 10.8v.4H35v1h.5l1-.2.3-.6h-.5L36 11l-.3-.7-.2-1-.7.3-.2.3v.3l.3.2"/>
    <path d="M34.8 11v-.4l-.4-.2-.6.2-.4.7v.5h.5M22.5 13.2l-.2.3h-.6v.3l.2.2h.3l.2-.2v-.3h.4v-.3h-.5zM20.8 13.8v.3h.5v-.3l-.3-.2"/>
    <path d="M48.6 24v-2c-.3-2.4-1-4.6-1.7-6.7-.2 0-.2-.3-.3-.4-1-2.7-2.6-5-4.5-7.2-.2 0-.3-.2-.4-.4l-1-1C36.2 2.3 30.5 0 24.2 0 18 0 12.3 2.4 8 6.4c-1.2 1-2 2-3 3-3 4.2-5 9.3-5 15 0 13.3 11 24.2 24.3 24.2 9.4 0 17.6-5.4 21.7-13.2.8-1.7 1.5-3.5 2-5.4l.2-1.4c.3-1.4.4-2.8.4-4.3V24zM44 14.4h.2l.5 1H44v-1zM40.5 10V9c.4.4.8.8 1 1.3l-.3.6h-1.5v-.4l.8-.5zM11.2 7.5h.5v-.2h.8v.3l-.2.3h-1v-.4zm.8 1h.5V9h-1l-.3-.3.8-.2zm33.6 9.7h-1.8l-1-.7h-1.2v.8h-.8l-2-.6V16l-2.4.3-.8.4H34l-1 .6v1.3l-2.6 1.8.2.7h.5v.8l-.4.2v2l2.2 2.3h1V26h1.6l.5-.3h.8l.6.5 1.4.2-.2 1.8L40 31l-.7 1.6v.7l.7.7v1.7l1 1.2v1.4h.6c-4 5-10.3 8.2-17.3 8.2C12 46.6 2 36.6 2 24.3c0-3 .6-6 1.8-8.7V15l.8-1 1-1.6v.4l-1 1-.8 1.8V17l1 .3V19l.8 1.6h.7v-.4L5.7 19l-.2-1.4H6V19l1.3 1.7-.3.6.8 1.2 2 .5v-.4h.7v.7h.6l1 .4 1.3 1.5H15l.2 1.5-1 .8-.2 1.3-.2.7 1.7 2v1h.8l1.4 1v3.8l.5.2-.3 1.7.6 1V42l1 1.8 1.2 1.2h1.4v-.4l-1-.8.2-.5.2-.5v-.5H21l-.4-.4.5-.6.2-.4-.6-.2v-.4h1l1.2-.7.5-1 1.4-1.6-.3-1.3.4-.8H26l1-.7.2-2.7 1-1.2v-.8l-.7-.3-.6-1h-2l-1.6-.5v-1l-.6-1h-1.4l-1-1.3-.6-.4v.5h-1.3L18 24l-1.4-.4-1 1.3-2-.4v-2l-1.3-.2.5-1-.2-.6L11 22h-1l-.5-1 .2-.8.6-1 1.4-.8h2.6v.8l1 .4v-1.4l.5-.6 1.4-1V16l1.5-1.4 1.4-.8 1-1h.4v.2l.5-.4h-.4l-.4-.2V12l.2-.2h.5l.3.5h.2l.8-.2V12h.5v.5l-.4.2v.4l1.3.3h.3v-.5l-1-.5V12l.8-.2V11l-.8-.5V9.2l-1.3.5h-.4v-1L21 8.4l-.6.5v1.4l-1.2.3-.5 1H18v-1l-1-.3-.7-.4-.2-.8 2-1 1-.4.2.6h.5V8h.6l-.2-.2v-.4h.7l.5-.5v-.3H23l.6.4-1.7 1 2.2.5.2-.7h1l.3-.6-.7-.2v-.8l-2-1-1.6.3-.8.4v1l-.8-.2v-.6l.7-.7h-1.9l-.2.5h.6v.7h-1l-.2.4h-1.4v-.6h1l.8-1h-.4l-.6.5-1-.2-.6-.8H14L13 6H14v.4l-.2.3H15l.4.5h-1.6v-.5l-1-.2-.5-.2h-1c3.6-2.7 8-4.3 13-4.3C30 2 35 4 39 7.6l-.2.4-1 .5-.5.4v.5h.6l.3.8 1-.3v1h-1.7l-.8 1.2-1.2.2-.2 1h.5v.7h-2.3l-.2.7.2 1.2.6.2H36l.2-.6 1-1.4h.8l.7-.5.2.5 1.7 1.2-.2.3h-.8l.3.3.5.2.6-.3V15h.2l-.2-.3-1.2-.8-.3-.8h1l.3.3.8.7v1l1 .8.3-1.3.6-.4v1l.6.7h1l.7 1.7zm-32.3-7l.5-.2h.6l-.2.8-.6.2-.3-.8zm3 1.7v.5H15l-.5-.2.2-.3.6-.2h1v.2zm.7.7v.4l-.4.2h-.4v-.6h.8zm-.4-.2v-.6l.5.5-.4.2zm.2 1v.5l-.3.3h-.7v-.5h.4v-.2h.6zm-1.8-.8h.8l-1 1.3-.4-.2V14l.6-.6zm3 .7v.5h-.6l-.2-.3v-.4l1 .3zm-.6-.5l.2-.2.3.2-.3.2-.3-.2zM46 19.3v.3-.3z"/>
    <path d="M3.8 15v.6l.8-1.7-.8 1z"/>
</svg>